{
    "pageSize": 5,
    "items": [
        {
            "id": "d3830f05-3f5f-4e6a-8cc9-4eeb3220bf97",
            "username": "Michaelangelo",
            "content": "Thats a good idea I should try that",
            "timestamp": "2020-12-14T10:10:00",
            "postId": "f4fff4e9-858e-4701-9895-6960915f6f1e"
        },
        {
            "id": "6ce37a59-0b3d-492e-927b-a57ff7833881",
            "username": "Lasagna36",
            "content": "Plus you increase the chance of finding rare and high level pokemon",
            "timestamp": "2020-12-14T10:09:00",
            "postId": "f4fff4e9-858e-4701-9895-6960915f6f1e"
        },
        {
            "id": "fbc45111-02c0-4ffa-98a1-e2892340208a",
            "username": "Lasagna36",
            "content": "The DexNav really helps in ev training",
            "timestamp": "2020-12-14T10:08:00",
            "postId": "f4fff4e9-858e-4701-9895-6960915f6f1e"
        },
        {
            "id": "7cd91b90-79ba-49d3-888a-bcc91aca8ed7",
            "username": "Sarge",
            "content": "Okay",
            "timestamp": "2020-12-14T10:07:00",
            "postId": "f4fff4e9-858e-4701-9895-6960915f6f1e"
        },
        {
            "id": "dda28cc1-fafe-4596-a9c3-599a3d2882c8",
            "username": "MasterChef",
            "content": "Finish the fight.",
            "timestamp": "2020-12-14T10:06:00",
            "postId": "f4fff4e9-858e-4701-9895-6960915f6f1e"
        }
    ],
    "offset": 0,
    "hasNext": true,
    "totalCount": 15
}