{
    "pageSize": 5,
    "items": [
        {
            "id": "090987a5-ebd2-48bb-bac0-117792924eb5",
            "username": "Michaelangelo",
            "content": "Dont remind me lol its like i had to fight them all twice",
            "timestamp": "2020-12-14T10:05:00",
            "postId": "f4fff4e9-858e-4701-9895-6960915f6f1e"
        },
        {
            "id": "46be3d55-ceac-440e-a858-3f633e3cbbfb",
            "username": "Lasagna36",
            "content": "Its crazy how tough the gym leaders are with max ev/iv pokemon",
            "timestamp": "2020-12-14T10:04:00",
            "postId": "f4fff4e9-858e-4701-9895-6960915f6f1e"
        },
        {
            "id": "7a8ae039-2b7b-4609-95b7-d45d534b9b2d",
            "username": "Lasagna36",
            "content": "True, but that would require a lot of effort, especially ona free game",
            "timestamp": "2020-12-14T10:03:00",
            "postId": "f4fff4e9-858e-4701-9895-6960915f6f1e"
        },
        {
            "id": "76c034d9-bf2b-4656-be22-ba4cdddcb2fe",
            "username": "Sarge",
            "content": "Are you ignoring me",
            "timestamp": "2020-12-14T10:02:00",
            "postId": "f4fff4e9-858e-4701-9895-6960915f6f1e"
        },
        {
            "id": "7f7481b4-16ea-40b2-8318-fd4ed85256b7",
            "username": "MasterChef",
            "content": "Next round.",
            "timestamp": "2020-12-14T10:01:00",
            "postId": "f4fff4e9-858e-4701-9895-6960915f6f1e"
        }
    ],
    "offset": 5,
    "hasNext": true,
    "totalCount": 15
}